<svg xmlns="http://www.w3.org/2000/svg" width="86" height="56">
    <path d="M81.436 13.875s-.212-.238-.89-.469a4.37 4.37 0 0 1-2.168.568c-2.177 0-3.975-1.535-3.975-3.449 0-1.898 1.842-3.504 4.041-3.504.983 0 1.156.13 1.595.047.301-.047.217-.154.217-.154-.602-1.046-4.227-.039-4.227-.039l-.772-2.305s1.073-.798 4.326-.859c2.835-.078 5.349 1.358 5.349 3.402 0 2.06-.044 3.189-.044 3.189s-.115 1.153 1.111 1.506v2.067h-4.563zm-1.374-4.603c-.5 0-.891.484-.891 1.1 0 .605.391 1.106.891 1.106.484 0 .875-.501.875-1.106 0-.616-.391-1.1-.875-1.1zM67.56 10.655v.2c0 .462.369.823.823.823v2.197H62.68v-2.197a.806.806 0 0 0 .807-.823V3.148a.804.804 0 0 0-.807-.813V0h4.88v8.144l1.095-1.076s-.515 0-.515-.622V4.255h5.544v2.113c.009.622-.445.7-.837.83l-1.419 1.353 1.842 2.488c.325.354.512.515.967.515v2.321h-3.905l-2.772-3.22zm-11.015 2.336c-.513.646-1.45 1.06-2.514 1.06-1.625 0-2.94-.991-2.94-2.212V7.474a.822.822 0 0 0-.814-.822V4.446h4.629l.008 5.663c0 .456.363.8.816.8a.806.806 0 0 0 .815-.8V7.491a.82.82 0 0 0-.815-.814V4.446h4.955v6.125c0 .468.355.839.8.839v2.465h-4.94v-.884zm-9.903-5.186c2.048.368 3.091 1.375 3.091 3.096 0 1.729-1.443 3.104-3.232 3.104-.849 0-1.707-.054-2.389-.307-.506-.175-.686.177-.686.177h-1.784v-2.997h1.594c.763 1.229 2.621 1.283 2.788.745.172-.553-1.3-.813-1.3-.813-1.95-.33-3.21-1.492-3.21-3.273 0-1.776 1.458-3.204 3.286-3.204.846 0 1.571.177 2.221.375 0 0 .145-.231.414-.231h1.823v2.737h-1.936c-.58-.685-1.744-1.153-2.15-.532-.462.716 1.47 1.123 1.47 1.123zm-11.308.146c0-.598-.482-1.076-1.072-1.076V4.446c.59 0 1.072-.484 1.072-1.074V1.451h4.059v1.921c0 .59.482 1.074 1.063 1.074v2.429c-.581 0-1.063.478-1.063 1.076v2.452c0 .591.482 1.075 1.063 1.075v2.397h-5.122V7.951zm-7.304 3.727a.813.813 0 0 0 .817-.823V7.612a.828.828 0 0 0-.817-.828V4.446h4.895v6.409c0 .462.356.823.808.823v2.197H28.03v-2.197zM28.815.483h4.11V3.61h-4.11V.483zM22.358 8.22a.835.835 0 0 0-.823-.822c-.438 0-.808.384-.808.822v2.613c0 .46.37.845.808.845v2.197h-5.751v-2.197a.818.818 0 0 0 .818-.823V7.759c0-.46-.37-.814-.818-.814V4.446h4.943v.893c.519-.631 1.448-1.06 2.521-1.06 1.625 0 2.933.998 2.933 2.212v4.364c0 .462.37.823.814.823v2.197h-4.631l-.006-5.655zM7.242 14.836c-3.997 0-7.243-3.304-7.243-7.362 0-4.056 3.246-7.351 7.243-7.351 3.98 0 7.222 3.295 7.222 7.351 0 4.058-3.242 7.362-7.222 7.362zM8.64 4.924a1.401 1.401 0 1 0-2.803 0v5.093c0 .793.619 1.438 1.405 1.438.77 0 1.398-.645 1.398-1.438V4.924zm77.275 38.922c0 3.91-3.12 7.06-6.951 7.06H53.147s-3.301-.268-9.956 5.094c-6.678-5.362-9.987-5.094-9.987-5.094H7.394c-3.838 0-6.951-3.15-6.951-7.06v-28.45h85.472v28.45zm-53.164-2.783c2.078-.751 2.886-2.619 2.886-2.619s-1.881.737-1.677-.414c.189-1.152.77-3.719.943-4.941.176-1.206-.347-1.974-1.344-2.165-1.01-.186-1.276.299-1.863 1.112-.281.425-1.068.715-.818.976 0 0 .492.439.189 1.813-.295 1.523-.695 3.98-.817 4.642-.128.66.077 2.482 2.501 1.596zm-9.804-18.822c-5.158.192-9.306.814-10.296 5.847 0 0 2.757-1.329 5.779-1.46 3.097-.146 6.404-.308 7.917-.53l-3.074 14.344s-3.047.761-5.478-1.008c0 0 4.608-2.334 5.311-4.908.687-2.567 1.435-6.614 1.435-6.614l-7.737 1.436s.371-.815.681-1.252c0 0-4.298 1.252-5.824 5.479-1.632 4.509 1.278 8.636 4.887 9.955 2.931 1.085 7.479.746 11.211-4.224 0 0-1.224.46-2.81.767l2.847-14.142s3.808-.816 5.137-5.141c0 0-4.502 1.251-9.986 1.451zm11.066 3.91c-1.322.715-2.44 1.922-2.44 1.922.565.27 2.342 1.373 2.342 1.373l2.72-1.95c-1.065-.63-2.622-1.345-2.622-1.345zm13.583 2.704c-.682-.081-.847.493-3.181-.238 0 0-.422-.191-.9 0-.46.2-3.482 1.452-4.66 3.851-1.163 2.387-.407 5.187 1.132 6.522l-2.68 2.505s1.601 2.167 5.378.914c3.777-1.26 3.393-5.279 3.543-6.109.151-.814 1.004-4.932 1.617-6.084.633-1.184.445-1.299-.249-1.361zm10.855-2.971c-.545-.331-2.977-1.046-5.539.798-2.576 1.844-2.726 5.1-2.576 6.962.153 1.85 1.504 3.234 4.186 2.426 2.658-.8 3.536-2.928 3.536-2.928-2.313 1.101-3.462 1.192-4.24.546-.753-.622-.151-2.089-.151-2.089l5.953-1.352c.779-3.282-.619-4.048-1.169-4.363zm15.348-2.644c-.981-.038-1.807-.084-2.471-.354-.664-.268-.823-.414-1.231-.146-.414.269-2.947 2.098-3.445 2.183 0 0-1.155-1.192-2.551-1.059 0 0-.848.867-1.187 1.105-.332.223-.597.584-.612.799 0 0 .581.383.302 1.435a72.668 72.668 0 0 0-.816 4.088c-.144.907-.127 2.16 1.276 2.614 1.405.437 3.506-.17 6.323-3.989 0 0-1.715.607-2.237.607-.504 0-1.147-.145-1.017-.984.143-.829.536-2.843.536-2.843s-.017-.451.641-.912c.672-.476 1.013-.962 2.033-.614 1.018.336 2.826 1.128 3.777.436.951-.722 2.454-1.69 2.65-2.242 0 0-.989-.117-1.971-.124zm-19.822 7.069s-.363-.539.167-1.966c.566-1.492 1.662-1.953 2.009-.677.309 1.175-.188 2.258-.188 2.258-.787.292-1.988.385-1.988.385zm-10.762 3.81c-.243.706.036 2.044-.832 1.706-1.247-.523-1.222-2.151-.945-2.889.166-.468.629-1.244 1.119-1.62.491-.362 1.411.161 1.768.161.354 0 .611.406.166.752-.498.4-.983 1.091-1.276 1.89zm.036 4.901c-.996.739-2.507-.144-2.682-.606l2.403-2.081s1.54 1.728.279 2.687zm-27.057-.913s-3.023-1.637.029-7.561l2.908-.429s-.278 6.66-2.937 7.99z"/>
</svg>
