<?xml version="1.0" encoding="utf-8"?>
<!-- Generator: Adobe Illustrator 19.0.0, SVG Export Plug-In . SVG Version: 6.00 Build 0)  -->
<svg version="1.1" id="Layer_1" xmlns="http://www.w3.org/2000/svg" xmlns:xlink="http://www.w3.org/1999/xlink" x="0px" y="0px"
	 viewBox="1 70 132 27" style="enable-background:new 1 70 132 27;" xml:space="preserve">
<style type="text/css">
	.st0{fill:#99999A;}
</style>
<path class="st0" d="M133,97c-5.8-0.7-10.5-5-11.7-10.5v10.3h-5.6V70h8.1c4.6,0,8.3,3.6,8.3,8.1c0,3.4-2.2,6.4-5.3,7.5
	c0.7,2.9,3.1,5.2,6.2,5.9C133,91.5,133,97,133,97z M123.9,75.4L123.9,75.4l-2.6,0v5.3h2.5c1.5,0,2.7-1.2,2.7-2.6
	C126.5,76.6,125.3,75.5,123.9,75.4z M101.5,83.4c0-7.3,6-13.3,13.4-13.4v5.5c-3.4,0.1-6.3,2.3-7.4,5.2h7.4v5.5h-7.4
	c1.1,3,4,5.1,7.4,5.2v5.5C107.4,96.7,101.5,90.8,101.5,83.4z M85.3,83.4C85.3,76,91.4,70,99,70h1.2v5.5H99c-4.5,0-8.2,3.6-8.2,8
	c0,3,1.7,5.6,4.2,7v-9.7h5.6v16.2H99C91.4,96.9,85.3,90.9,85.3,83.4z M78.9,76.3h5.6v20.6h-5.6C78.9,96.9,78.9,76.3,78.9,76.3z
	 M78.9,70h5.6v5.5h-5.6C78.9,75.5,78.9,70,78.9,70z M73.6,96.9h-5.6V75.5h-4.4V70H78v5.5h-4.4V96.9z M62.1,84.5
	c0.6,1.2,0.8,2.4,0.8,3.7c0,4.7-3.8,8.4-8.5,8.6v-5.4c1.7-0.2,3-1.3,2.9-3c0-0.7-0.4-1.6-2-2.7c-2.2-1.6-3.7-4.2-3.7-7.1
	c0-4.8,4-8.7,8.9-8.7h2.2v5.4h-2.2c-1.8,0-3.3,1.5-3.3,3.3c0,1,0.5,2,1.3,2.6C59.3,81.8,61,82.5,62.1,84.5z M43.8,83.4
	c0,4.4,3.7,8,8.2,8h1.6v5.5H52c-7.6,0-13.7-6-13.7-13.4C38.3,76,44.4,70,52,70v5.5C47.5,75.5,43.8,79,43.8,83.4z M31.8,76.3h5.6
	v20.6h-5.6V76.3z M31.8,70h5.6v5.5h-5.6V70z M30.3,84.5c0.6,1.2,0.8,2.4,0.8,3.7c0,4.7-3.8,8.5-8.5,8.7v-5.5c1.7-0.2,3-1.3,2.9-3
	c0-0.7-0.4-1.6-2-2.7c-2.2-1.6-3.7-4.2-3.7-7.1c0-4.8,4-8.7,8.9-8.7H31v5.4h-2.2c-1.8,0-3.3,1.5-3.3,3.3c0,1,0.5,2,1.3,2.6
	C27.5,81.8,29.1,82.5,30.3,84.5z M21.8,91.5v5.5c-4.7-0.2-8.4-4-8.5-8.6h0v0h0c0-0.1,0-0.1,0-0.2c0-1.8-1.5-3.3-3.3-3.3
	c-1.8,0-3.3,1.5-3.3,3.3c0,1.8,1.5,3.3,3.3,3.3h3v5.4h-3C5,96.8,1,92.9,1,88.1c0-4.8,4-8.7,8.9-8.7c1.2,0,2.3,0.2,3.4,0.6v-1.1
	l0-0.2c0-1.8-1.5-3.3-3.4-3.3H7V70h3c4.9,0,8.9,3.9,8.9,8.7v9.9C18.8,90.2,20.1,91.3,21.8,91.5z"/>
</svg>
