<?xml version="1.0" encoding="utf-8"?>
<!-- Generator: Adobe Illustrator 19.0.0, SVG Export Plug-In . SVG Version: 6.00 Build 0)  -->
<svg version="1.1" id="Layer_1" xmlns="http://www.w3.org/2000/svg" xmlns:xlink="http://www.w3.org/1999/xlink" x="0px" y="0px"
	 viewBox="-9 65 111 37" style="enable-background:new -9 65 111 37;" xml:space="preserve">
<style type="text/css">
	.st0{fill:#000066;}
</style>
<path class="st0" d="M101.8,74.2c-0.3,1.1-0.6,2.3-0.9,3.4c-0.1,0.3-0.2,0.4-0.5,0.4c-2,0-4,0-6,0c-0.9,0-1.6,0.3-2,1.1
	c-0.3,0.5-0.2,0.9,0.1,1.3c0.4,0.4,0.8,0.7,1.3,1c0.8,0.5,1.7,0.9,2.6,1.5c0.8,0.5,1.5,1,2.2,1.6c1.2,1.1,1.6,2.6,1.3,4.2
	c-0.2,1.1-0.5,2.2-1.1,3.1c-1.3,2.4-3.4,3.6-6,3.7c-2.7,0.1-5.4,0.1-8.1,0.1c-0.1,0-0.2,0-0.3,0c0.1-0.5,0.2-0.9,0.4-1.3
	c0.2-0.9,0.5-1.8,0.7-2.7c0.1-0.3,0.2-0.4,0.5-0.4c2,0,4,0,6,0c0.6,0,1.2-0.1,1.8-0.2c0.8-0.2,1.2-0.8,1.3-1.6
	c0.1-0.6-0.2-1.1-0.6-1.5c-0.6-0.5-1.3-0.9-1.9-1.3c-0.9-0.6-1.9-1.1-2.8-1.7c-1.1-0.8-2-1.9-2.2-3.3c-0.1-0.7-0.1-1.4,0.1-2.1
	c0.9-4.2,4.4-5.9,7.4-6c2.3-0.1,4.5,0,6.8,0c0.1,0,0.1,0,0.2,0C101.9,73.8,101.9,74,101.8,74.2z M86.6,77.7C86.5,78,86.4,78,86.1,78
	c-1.3,0-2.6,0-3.8,0.2c-4,0.6-7.2,4.1-7.5,8c-0.2,3,1.7,5,4.6,5c1.1,0,2.3,0,3.4,0h0.6c-0.2,0.6-0.3,1.1-0.4,1.6
	c-0.2,0.8-0.4,1.7-0.7,2.5c-0.1,0.3-0.2,0.4-0.5,0.4c-1.6,0-3.1,0-4.7-0.1c-4.1-0.3-6.9-2.9-7.3-6.9c-0.3-2.8,0.5-5.4,1.9-7.8
	c2.3-4.2,5.9-6.6,10.6-7.2c1.6-0.2,3.3-0.1,5-0.2c0.1,0,0.1,0,0.2,0.1l-0.3,1.2C87.1,75.8,86.8,76.8,86.6,77.7z M66.1,95.3
	c-0.1,0.3-0.2,0.5-0.6,0.4c-1.3,0-2.6,0-3.9,0c-0.1,0-0.3,0-0.5,0l0.5-1.7l5.1-19.5c0.2-0.9,0.2-0.9,1.2-0.9c1.1,0,2.2,0,3.3,0
	c0.2,0,0.3,0,0.5,0c-0.3,1.3-0.7,2.5-1,3.8C69.2,83.3,67.7,89.3,66.1,95.3z M62.3,77.6C62.2,78,62.1,78,61.8,78c-2,0-4,0-6,0
	c-0.8,0-1.5,0.3-1.9,1.1c-0.3,0.5-0.3,1,0.1,1.4c0.4,0.4,0.9,0.7,1.4,1c1,0.6,2,1.1,2.9,1.7c0.4,0.2,0.7,0.5,1.1,0.8
	c1.6,1.3,2.3,3,1.9,5c-0.2,1.3-0.7,2.6-1.5,3.7c-1.2,1.8-2.9,2.7-5,2.9c-0.9,0.1-1.8,0.1-2.8,0.1c-1.9,0-3.8,0-5.7,0
	c-0.2,0-0.3,0-0.6,0c0.1-0.4,0.2-0.6,0.2-0.9c0.3-1,0.6-2,0.8-3c0.1-0.4,0.3-0.6,0.7-0.5c2,0,3.9,0,5.9,0c0.5,0,1,0,1.5-0.1
	c0.6-0.1,1.1-0.4,1.3-1c0.4-0.9,0.3-1.5-0.4-2.1c-0.6-0.5-1.4-0.9-2.1-1.4c-0.9-0.6-1.9-1.1-2.8-1.8c-1.2-0.9-2.1-2.1-2.2-3.7
	c-0.1-1.3,0.3-2.6,0.9-3.7c1.3-2.4,3.4-3.5,6.1-3.9c0.4-0.1,0.8-0.1,1.2-0.1c2,0,3.9,0,5.9,0h0.5c-0.3,1.1-0.6,2.1-0.8,3.1
	C62.5,77,62.4,77.3,62.3,77.6z M44.2,92.3c-0.3,1-0.6,2.1-0.8,3.1c-0.1,0.2-0.2,0.3-0.4,0.3c-3.1,0-6.3,0-9.4-0.1
	c-1.1,0-2.1-0.3-3-0.8c-2.1-1.1-3.1-3.5-2.6-5.9c0.4-2,1.5-3.6,3.2-4.8c2.1-1.6,4.6-2.6,7.3-2.5c1.1,0,2.2,0,3.3,0
	c0.4,0,0.5-0.1,0.6-0.4c0.1-0.5,0.3-1.1,0.3-1.6c0.1-0.8-0.4-1.3-1.2-1.4c-0.3-0.1-0.7-0.1-1-0.1c-1.9,0-3.9,0-5.8,0H34
	c0.4-1.5,0.8-2.8,1.2-4.2c0-0.1,0.3-0.2,0.4-0.2c1.7,0,3.4,0,5.1,0c0.6,0,1.3,0,1.9,0c2.1,0.2,3.7,1.1,4.6,3
	c0.6,1.3,0.5,2.6,0.2,3.9C46.3,84.4,45.2,88.3,44.2,92.3z M40.7,86c-1.3,0-2.6,0-4,0c-1.6,0.1-3.1,1.3-3.5,2.7
	c-0.4,1.3,0.4,2.5,1.7,2.5c1.4,0.1,2.8,0,4.2,0c0.3,0,0.3-0.1,0.4-0.3c0.4-1.5,0.8-3.1,1.2-4.6c0-0.1,0-0.2,0-0.3
	C40.8,86,40.8,86,40.7,86z M18.9,88.8c-3,3.6-6.4,6.9-10.3,9.5c-2.3,1.5-4.8,2.8-7.6,3.4c-2,0.4-3.9,0.5-5.9-0.2
	c-2.5-0.9-4-3-4.1-5.7c-0.1-2.6,0.8-5,2.1-7.2c1.6-2.7,3.8-4.9,6.2-6.9c2.9-2.3,6-4.2,9.6-5.3c1.2-0.3,2.3-0.6,3.5-0.7
	c0.8-0.1,1.7,0.1,2.4,0.3c1.8,0.5,2.6,2.2,2.2,4c0,0.1,0,0.2-0.1,0.3l0.1,0c0.3-0.4,0.6-0.8,0.9-1.2c1.3-1.9,2.5-3.8,3.1-6
	c0.2-0.8,0.4-1.6,0.2-2.5c-0.3-1.6-1.3-2.5-2.7-3c-1.5-0.5-3-0.4-4.5-0.1c-2.9,0.5-5.6,1.7-8.1,3.1C5,71.3,3.9,72,2.8,72.7l-0.3-0.4
	c0.4-0.3,0.7-0.6,1.1-0.9c3.5-2.7,7.4-4.8,11.7-5.8c2.2-0.5,4.3-0.8,6.6-0.3c2.9,0.7,4.8,2.9,5,6c0.1,2.4-0.5,4.6-1.4,6.7
	C24,81.9,21.6,85.5,18.9,88.8z M13.3,78.1c-0.9-0.1-1.8,0-2.7,0.3c-3.6,1.1-6.5,3.3-8.9,6.2c-0.8,0.9-1.5,2-1.8,3.2
	c-0.6,2,0.6,3.5,2.7,3.5c1,0,2-0.3,2.9-0.7c3.4-1.6,6.2-3.9,8.6-6.7c0.7-0.8,1.1-1.7,1.3-2.6C15.8,79.4,15,78.3,13.3,78.1z"/>
</svg>
