<svg xmlns="http://www.w3.org/2000/svg" width="21.5" height="21.5">
    <path fill="#001E63" fill-rule="evenodd" d="M9.5 5.5h2v10h-2v-10z"/>
    <path fill="#001E63" fill-rule="evenodd" d="M5.5 9.5h10v2h-10v-2z"/>
    <path fill="none" stroke="#002261" d="M10.51 1a9.5 9.5 0 0 1 9.5 9.5 9.5 9.5 0 0 1-9.5 9.5 9.5 9.5 0 0 1-9.5-9.5 9.5 9.5 0 0 1 9.5-9.5z"/>
</svg>
