<svg xmlns="http://www.w3.org/2000/svg" viewBox="0 0 344.94 62.74" aria-labeledby="asics-outlet-flag-title">
	<title id="asics-outlet-flag-title">Asics Outlet</title>
	<g>
		<path d="M87.57,18.25c-6.84,0-11.09,4.94-11.09,12.89v.42c0,7.71,4.5,12.89,11.2,12.89S98.61,39.36,98.61,31.5v-.42C98.61,23.28,94.28,18.25,87.57,18.25Z"/>
		<path d="M16.35,0,0,62.74H328.6L344.94,0ZM107.2,31.45c0,11.75-8.07,19.95-19.63,19.95S67.84,43.26,67.84,31.61v-.42c0-11.5,8.3-19.84,19.74-19.84S107.2,19.44,107.2,31Zm38.63,4c0,10.28-5.66,15.94-15.94,15.94-10,0-15.47-5.51-15.47-15.52v-24h8.38V35.35c0,6.54,2,9.09,7.14,9.09,4.64,0,7.51-1.6,7.51-9.57v-23h8.38Zm35.52-16.73H170.86V50.87h-8.38V18.72H152V11.87h29.36Zm30.83,32.15h-24.4v-39h8.33V44h16.08Zm32.51,0H218.92v-39H243.8v6.85H227.25v9h13.28v6.59H227.25V44h17.45Zm33.52-32.15H267.72V50.87h-8.38V18.72H248.85V11.87h29.36Z"/>
	</g>
</svg>