<svg xmlns="http://www.w3.org/2000/svg" width="37" height="37">
    <path d="M18.396.494C8.512.494.5 8.669.5 18.752c0 10.082 8.012 18.256 17.896 18.256s17.897-8.174 17.897-18.256C36.293 8.669 28.28.494 18.396.494zm4.666 18.264h-3.053v11.106h-4.524V18.758h-2.152v-3.921h2.152v-2.54c0-1.819.846-4.658 4.566-4.658l3.35.014v3.809h-2.432c-.397 0-.959.201-.959 1.066v2.309h3.449l-.397 3.921z"/>
</svg>
