<svg xmlns="http://www.w3.org/2000/svg" width="132" height="27">
    <path d="M131.993 27.015c-5.791-.722-10.456-4.966-11.678-10.465v10.324h-5.581V.001h8.134c4.559.004 8.252 3.616 8.252 8.071 0 3.437-2.198 6.37-5.295 7.534.74 2.931 3.138 5.224 6.168 5.874v5.535zm-9.125-21.566v.003h-2.553v5.25h2.548c1.483 0 2.686-1.176 2.686-2.627 0-1.449-1.199-2.623-2.681-2.626zm-22.415 7.99c0-7.322 5.986-13.276 13.435-13.438v5.461c-3.393.125-6.255 2.274-7.362 5.247h7.362v5.459h-7.362c1.107 2.973 3.969 5.123 7.362 5.248v5.46c-7.449-.162-13.435-6.115-13.435-13.437zm-16.172.003c0-7.423 6.154-13.441 13.746-13.441h1.187V5.46h-1.188c-4.508 0-8.162 3.574-8.162 7.982 0 2.992 1.684 5.597 4.174 6.964v-9.728h5.583v16.205h-1.599c-7.589-.003-13.741-6.019-13.741-13.441zm-6.425-7.163h5.582v20.604h-5.582V6.279zm0-6.279h5.582v5.459h-5.582V0zm-5.215 26.882h-5.583V5.459h-4.384V0h14.351v5.459h-4.384v21.423zM61.114 14.534a8.526 8.526 0 0 1 .838 3.693c0 4.682-3.776 8.443-8.514 8.647v-5.4c1.661-.191 2.954-1.287 2.948-2.963-.008-.716-.412-1.576-1.983-2.731-2.24-1.583-3.698-4.158-3.698-7.067 0-4.811 3.99-8.713 8.911-8.713h2.214v5.442h-2.214c-1.848 0-3.346 1.465-3.346 3.271a3.24 3.24 0 0 0 1.297 2.586c.744.547 2.384 1.229 3.547 3.235zm-18.269-1.092c0 4.408 3.655 7.983 8.164 7.983h1.593v5.458h-1.599c-7.589-.003-13.741-6.019-13.741-13.441C37.262 6.019 43.418 0 51.009 0v5.459c-4.509 0-8.164 3.574-8.164 7.983zM30.839 6.279h5.583v20.604h-5.583V6.279zm0-6.279h5.583v5.459h-5.583V0zm-1.554 14.534a8.526 8.526 0 0 1 .838 3.693c0 4.682-3.776 8.501-8.514 8.704v-5.457c1.661-.191 2.955-1.287 2.949-2.963-.008-.716-.413-1.576-1.983-2.731-2.24-1.583-3.698-4.158-3.698-7.067 0-4.811 3.99-8.713 8.911-8.713h2.213v5.442h-2.213c-1.849 0-3.346 1.465-3.346 3.271a3.24 3.24 0 0 0 1.297 2.586c.744.547 2.384 1.229 3.546 3.235zm-8.513 6.94v5.457c-4.695-.202-8.445-3.955-8.511-8.58h-.002v-.046h-.014c.004-.059.006-.118.006-.179 0-1.806-1.498-3.271-3.346-3.271-1.847 0-3.346 1.465-3.346 3.271 0 1.807 1.499 3.271 3.346 3.271h2.967v5.442H8.903c-4.92-.001-8.908-3.902-8.908-8.713 0-4.812 3.989-8.712 8.91-8.712 1.187 0 2.318.226 3.354.638V8.906l-.001-.193c0-1.806-1.503-3.271-3.351-3.271H5.954V0h2.953c4.9 0 8.877 3.87 8.91 8.655v9.856c-.005 1.675 1.294 2.772 2.955 2.963z"/>
</svg>
