<svg xmlns="http://www.w3.org/2000/svg" width="19" height="19">
    <path fill="#B0B0B0" fill-rule="evenodd" d="M18.595 18.439c-.195.195-.67.037-1.061-.354L1.271 1.822C.88 1.431.722.956.917.761c.195-.195.67-.037 1.061.354l16.263 16.263c.391.391.549.866.354 1.061z"/>
    <path fill="#B0B0B0" fill-rule="evenodd" d="M18.238 1.819L1.975 18.082c-.391.391-.866.549-1.061.354-.195-.195-.037-.67.353-1.061L17.531 1.112c.39-.391.865-.549 1.06-.354.196.195.038.67-.353 1.061z"/>
</svg>
