<svg xmlns="http://www.w3.org/2000/svg" width="20" height="19">
    <path d="M19.774 18.763a.805.805 0 0 1-.573.236.806.806 0 0 1-.553-.216l-5.9-5.518a7.866 7.866 0 0 1-4.994 1.775C3.478 15.04 0 11.667 0 7.522 0 3.376 3.478.004 7.754.004s7.755 3.372 7.755 7.518a7.327 7.327 0 0 1-1.658 4.629l5.903 5.52a.756.756 0 0 1 .02 1.092zM7.754 1.548c-3.397 0-6.161 2.68-6.161 5.974 0 3.293 2.764 5.973 6.161 5.973 3.398 0 6.162-2.68 6.162-5.973 0-3.294-2.764-5.974-6.162-5.974z"/>
</svg>
