<svg xmlns="http://www.w3.org/2000/svg" width="37" height="37">
    <path d="M18.604 37.008C8.72 37.008.707 28.834.707 18.752.707 8.669 8.72.494 18.604.494 28.488.494 36.5 8.669 36.5 18.752c0 10.082-8.012 18.256-17.896 18.256zm11.02-19.115c0-1.823-.221-3.639-.221-3.639s-.212-1.549-.873-2.232c-.841-.899-1.78-.899-2.212-.958-3.077-.224-7.706-.224-7.706-.224h-.008s-4.629 0-7.714.224c-.433.059-1.372.059-2.204.958-.662.683-.882 2.232-.882 2.232s-.22 1.816-.22 3.639v1.708c0 1.823.22 3.64.22 3.64s.22 1.547.882 2.231c.832.899 1.934.874 2.424.966 1.763.174 7.494.225 7.494.225s4.637-.008 7.714-.234c.432-.05 1.371-.058 2.212-.957.661-.684.873-2.231.873-2.231s.221-1.817.221-3.64v-1.708zm-13.298-2.548l5.96 3.173-5.951 3.148-.009-6.321z"/>
</svg>
