{

    "sites" : [
        {
            "name": "asics-eu",
            "publicJavascript": "./site_asics_eu",
            "cartridges": [
                "./site_asics_eu",
                "./region_eu",
                "./brand_asics",
                "./org_asics",
                "./int_mulesoft",
                "./int_s3",
                "./int_flowmailer",
                "./int_dis",
                "./int_stocknotification",
                "./int_ups",
                "./ui_nav",
                "./ui_content",
                "./app_storelocator",
                "./app_lyonscg",
                "./app_storefront_controllers",
                "./app_storefront_core",
                "./int_adyen_controllers",
                "./int_adyen",
                "./int_bazaarvoice",
                "./int_asicsid",
                "./int_tealium",
                "./int_saphybrismarketing",
                "./bc_library",
                "./bc_integrationframework",
                "./bm_tools",
                "./bm_adyen",
                "./int_asics_feeds",
                "./bc_orderwatcher"
            ],
            "javascriptPluginPaths": [
                "../app_storefront_core/cartridge/static/default/lib/jquery/jquery-2.1.1.min.js",
                "../app_storefront_core/cartridge/static/default/lib/jquery/ui/jquery-ui.min.js",
                "../app_lyonscg/cartridge/static/default/lib/svg4everybody.js",
                "../app_lyonscg/cartridge/static/default/lib/slick/slick.min.js",
                "../app_storefront_core/cartridge/static/default/lib/jquery/jquery.validate.min.js",
                "../app_storefront_core/cartridge/static/default/lib/jquery/jquery.zoom.min.js",
                "../org_asics/cartridge/static/default/lib/jquery/jquery.creditCardValidator.js"
            ]
        },
        {
            "name": "asics-outlet-eu",
            "publicJavascript": "./site_asics_outlet_eu",
            "cartridges": [
                "./site_asics_outlet_eu",
                "./region_eu",
                "./brand_asics_outlet",
                "./org_asics",
                "./int_mulesoft",
                "./int_flowmailer",
                "./int_dis",
                "./int_stocknotification",
                "./int_ups",
                "./ui_nav",
                "./ui_content",
                "./app_storelocator",
                "./app_lyonscg",
                "./app_storefront_controllers",
                "./app_storefront_core",
                "./int_adyen_controllers",
                "./int_adyen",
                "./int_bazaarvoice",
                "./int_asicsid",
                "./int_tealium",
                "./int_saphybrismarketing",
                "./bc_library",
                "./bc_integrationframework",
                "./bm_tools",
                "./bm_adyen",
                "./int_asics_feeds",
                "./bc_orderwatcher"
            ],
            "javascriptPluginPaths": [
                "../app_storefront_core/cartridge/static/default/lib/jquery/jquery-2.1.1.min.js",
                "../app_storefront_core/cartridge/static/default/lib/jquery/ui/jquery-ui.min.js",
                "../app_lyonscg/cartridge/static/default/lib/svg4everybody.js",
                "../app_lyonscg/cartridge/static/default/lib/slick/slick.min.js",
                "../app_storefront_core/cartridge/static/default/lib/jquery/jquery.validate.min.js",
                "../app_storefront_core/cartridge/static/default/lib/jquery/jquery.zoom.min.js",
                "../org_asics/cartridge/static/default/lib/jquery/jquery.creditCardValidator.js"
            ]
        },
        {
            "name": "haglofs-eu",
            "publicJavascript": "./site_haglofs_eu",
            "cartridges": [
                "./site_haglofs_eu",
                "./region_eu",
                "./brand_haglofs",
                "./org_asics",
                "./int_mulesoft",
                "./int_s3",
                "./int_flowmailer",
                "./int_dis",
                "./int_stocknotification",
                "./int_ups",
                "./ui_nav",
                "./ui_content",
                "./app_storelocator",
                "./app_lyonscg",
                "./app_storefront_controllers",
                "./app_storefront_core",
                "./int_adyen_controllers",
                "./int_adyen",
                "./int_bazaarvoice",
                "./int_asicsid",
                "./int_tealium",
                "./int_saphybrismarketing",
                "./bc_library",
                "./bc_integrationframework",
                "./bm_tools",
                "./bm_adyen",
                "./int_asics_feeds",
                "./int_mainstreet",
                "./app_cc",
                "./bc_orderwatcher"
            ],
            "javascriptPluginPaths": [
                "../app_storefront_core/cartridge/static/default/lib/jquery/jquery-2.1.1.min.js",
                "../app_storefront_core/cartridge/static/default/lib/jquery/ui/jquery-ui.min.js",
                "../app_lyonscg/cartridge/static/default/lib/svg4everybody.js",
                "../app_lyonscg/cartridge/static/default/lib/slick/slick.min.js",
                "../app_storefront_core/cartridge/static/default/lib/jquery/jquery.validate.min.js",
                "../app_storefront_core/cartridge/static/default/lib/jquery/jquery.zoom.min.js",
                "../org_asics/cartridge/static/default/lib/jquery/jquery.creditCardValidator.js"
            ]
        }
    ],

    "deployment" : {
        "instanceRoot": ".web.asics.demandware.net",
        "revisionCartridgeName": "org_asics",
        "siteDataFolderName": "core",
        "dataDeployDelay": 40000,
        "dataBundles" : {
            "core-config": [
                "core"
            ],
            "core-content": [
                "core-content"
            ],
            "core-catalog": [
                "core-catalog"
            ],
            "core-config-data": [
                "core",
                "core-content",
                "core-catalog"
            ],
            "test-product-data": [
                "test-product-data"
            ]
        }
    },

    "tasks" : {
        "watch": {
            "taskName": "watch",
            "subModules": [
                "/lib/watch/watch",
                "/lib/styles/get-style-directories",
                "/lib/styles/sass-lint",
                "/lib/styles/sass",
                "/lib/client-js/get-paths-client-js",
                "/lib/client-js/eslint-client-js",
                "/lib/client-js/build-temp-client-js",
                "/lib/client-js/client-js",
                "/lib/client-js/delete-temp-client-js",
                "/lib/styles/get-style-directories",
                "/lib/server-js/eslint-server-js"
            ],
            "subTasks": [
                "watch:isml:css:js:xml:properties:svg:img:font:ds",
                "watch:scss",
                "watch:js",
                "watch:scss-lint",
                "watch:js-lint"
            ]
        },
        "styles": {
            "taskName": "build-styles",
            "subModules": [
                "/lib/styles/get-style-directories",
                "/lib/styles/sass-lint",
                "/lib/styles/sass"
            ],
            "subTasks": [
                "get-style-directories",
                "sass-lint",
                "sass"
            ]
        },
        "client-javascript": {
            "taskName": "build-client-js",
            "subModules": [
                "/lib/client-js/get-paths-client-js",
                "/lib/client-js/eslint-client-js",
                "/lib/client-js/build-temp-client-js",
                "/lib/client-js/client-js",
                "/lib/client-js/delete-temp-client-js"
            ],
            "subTasks": [
                "get-paths-client-js",
                "eslint-client-js",
                "build-temp-client-js",
                "client-js",
                "delete-temp-client-js"
            ]
        },
        "server-javascript": {
            "taskName": "server-js",
            "subModules": [
                "/lib/server-js/eslint-server-js"
            ],
            "subTasks": [
                "eslint-server-js"
            ],
            "lintDirectories": [
                "../app_lyonscg/cartridge/scripts/**/*.js",
                "../app_lyonscg/cartridge/controllers/**/*.js",
                "../org_asics/cartridge/scripts/**/*.js",
                "../org_asics/cartridge/controllers/**/*.js",
                "../int_mulesoft/cartridge/scripts/**/*.js",
                "../int_mulesoft/cartridge/controllers/**/*.js",
                "../int_flowmailer/cartridge/scripts/**/*.js",
                "../int_flowmailer/cartridge/controllers/**/*.js",
                "../int_ups/cartridge/scripts/**/*.js",
                "../int_ups/cartridge/controllers/**/*.js",
                "../int_adyen/cartridge/scripts/**/*.js",
                "../int_adyen_controllers/cartridge/scripts/**/*.js",
                "../int_adyen_controllers/cartridge/controllers/**/*.js",
                "../int_tealium/cartridge/scripts/**/*.js",
                "../int_tealium/cartridge/controllers/**/*.js",
                "../int_saphybrismarketing/cartridge/scripts/**/*.js",
                "../int_saphybrismarketing/cartridge/controllers/**/*.js",
                "../int_asicsid/cartridge/scripts/**/*.js",
                "../int_asicsid/cartridge/controllers/**/*.js",
                "../int_asics_feeds/cartridge/scripts/**/*.js",
                "../int_asics_feeds/cartridge/controllers/**/*.js"
            ]
        },
        "builder-javascript": {
            "taskName": "builder-js",
            "subModules": [
                "/lib/builder-js/eslint-builder-js"
            ],
            "subTasks": [
                "eslint-builder-js"
            ]
        },
        "combine-plugins-javascript": {
            "taskName": "combine-plugins-js",
            "subModules": [
                "/lib/client-js/combine-plugin-js"
            ],
            "subTasks": [
                "combine-plugin-js"
            ]
        },
        "svg": {
            "taskName": "build-svg",
            "subModules": [
                "/lib/svg/get-svg-sprite-projects",
                "/lib/svg/combine-svg"
            ],
            "subTasks": [
                "get-svg-sprite-projects",
                "combine-svg"
            ]
        },
        "deploy": {
            "taskName": "run-deploy",
            "subModules": [
                "/lib/client-js/combine-plugin-js",
                "/lib/svg/get-svg-sprite-projects",
                "/lib/svg/combine-svg",
                "/lib/styles/get-style-directories",
                "/lib/styles/sass-lint",
                "/lib/styles/sass",
                "/lib/styles/minify",
                "/lib/styles/bless",
                "/lib/client-js/get-paths-client-js",
                "/lib/client-js/eslint-client-js",
                "/lib/client-js/build-temp-client-js",
                "/lib/client-js/client-js",
                "/lib/client-js/delete-temp-client-js",
                "/lib/client-js/uglify-client-js",
                "/lib/deploy/init-deployment",
                "/lib/deploy/copy-cartridges",
                "/lib/deploy/update-revision-properties",
                "/lib/deploy/update-cartridge-properties",
                "/lib/deploy/update-cartridge-references",
                "/lib/deploy/zip-files",
                "/lib/deploy/make-directories",
                "/lib/deploy/webdav-upload",
                "/lib/deploy/cleanup-code",
                "/lib/deploy/unzip-files",
                "/lib/deploy/activate-code"
            ],
            "subTasks": [
                "combine-plugin-js",
                "get-svg-sprite-projects",
                "combine-svg",
                "get-style-directories",
                "sass-lint",
                "sass",
                "minify",
                "bless",
                "get-paths-client-js",
                "eslint-client-js",
                "build-temp-client-js",
                "client-js",
                "delete-temp-client-js",
                "uglify-client-js",
                "init-deployment",
                "copy-cartridges",
                "update-revision-properties",
                "update-cartridge-properties",
                "update-cartridge-references",
                "zip-files",
                "webdav-upload",
                "cleanup-code",
                "unzip-files",
                "activate-code"
            ],
            "styleDependencies": [
                "combine-svg"
            ],
            "deployDependencies": [
                "bless",
                "delete-temp-client-js"
            ],
            "uploadDependencies": [
                "webdav-delete",
                "make-directories",
                "zip-files"
            ]
        },
        "deploy-data": {
            "taskName": "run-deploy-data",
            "subModules": [
                "/lib/deploy/init-deployment",
                "/lib/data/zip-data-files",
                "/lib/deploy/webdav-upload",
                "/lib/data/import-data",
                "/lib/data/cleanup-data"
            ],
            "subTasks": [
                "init-deployment",
                "webdav-upload",
                "import-data",
                "cleanup-data"
            ],
            "uploadDependencies": [
                "webdav-delete-data",
                "zip-data-files"
            ]
        },
        "system-objects-report": {
            "taskName": "run-system-objects-report",
            "subModules": [
                "/lib/deploy/init-deployment",
                "/lib/data/sysobj-report",
                "/lib/data/system-objects-report",
                "/lib/util/xml-reporting-util"
            ],
            "subTasks": [
                "init-deployment",
                "system-objects-report"
            ]
        }
    }

}
