<?xml version="1.0" encoding="utf-8"?>
<!-- Generator: Adobe Illustrator 19.0.0, SVG Export Plug-In . SVG Version: 6.00 Build 0)  -->
<svg version="1.1" id="Layer_1" xmlns="http://www.w3.org/2000/svg" xmlns:xlink="http://www.w3.org/1999/xlink" x="0px" y="0px"
	 viewBox="-295 387 20 20" style="enable-background:new -295 387 20 20;" xml:space="preserve">
<style type="text/css">
	.st0{fill:#FFFFFF;}
</style>
<path class="st0" d="M-275.8,387.8c0.4,0.4,0.4,1,0,1.4c0,0,0,0,0,0l-17,17c-0.4,0.4-1,0.4-1.4,0c-0.4-0.4-0.4-1,0-1.4l17-17
	C-276.8,387.4-276.2,387.4-275.8,387.8C-275.8,387.8-275.8,387.8-275.8,387.8z"/>
<path class="st0" d="M-292.8,387.8l17,17c0.4,0.4,0.4,1,0,1.4c-0.4,0.4-1,0.4-1.4,0l-17-17c-0.4-0.4-0.4-1,0-1.4
	C-293.8,387.4-293.2,387.4-292.8,387.8z"/>
</svg>
