<?xml version="1.0" encoding="utf-8"?>
<!-- Generator: Adobe Illustrator 19.0.0, SVG Export Plug-In . SVG Version: 6.00 Build 0)  -->
<svg version="1.1" id="Layer_1" xmlns="http://www.w3.org/2000/svg" xmlns:xlink="http://www.w3.org/1999/xlink" x="0px" y="0px"
	 viewBox="-1274 714 10 14" style="enable-background:new -1274 714 10 14;" xml:space="preserve">
<style type="text/css">
	.st0{fill:#FFFFFF;}
</style>
<path class="st0" d="M-1273.3,728c-0.2,0-0.4-0.1-0.6-0.3c-0.2-0.3-0.1-0.8,0.2-1l7.8-5.7l-7.8-5.7c-0.3-0.2-0.4-0.7-0.2-1
	c0.2-0.3,0.6-0.4,0.9-0.2c0,0,0,0,0,0l8.6,6.3c0.2,0.1,0.3,0.3,0.3,0.6c0,0.2-0.1,0.4-0.3,0.6l-8.6,6.3
	C-1273,728-1273.2,728-1273.3,728z"/>
</svg>
