<svg xmlns="http://www.w3.org/2000/svg" width="13" height="9">
    <path fill="#001e63" fill-rule="evenodd" d="M11.624.149a.925.925 0 0 0-.489-.146.892.892 0 0 0-.744.412L4.153 6.631l-2.67-2.733a.882.882 0 0 0-1.258.051.931.931 0 0 0 .049 1.286l3.211 3.36.079.09.081.095.032.018.068.07.173.083.036.019.273.044h.013a.859.859 0 0 0 .656-.286l.076-.119.006-.007 6.901-7.193a.927.927 0 0 0-.255-1.26z"/>
</svg>
