<svg xmlns="http://www.w3.org/2000/svg" width="20" height="20">
    <path d="M19.192.808a.999.999 0 0 1 0 1.414l-16.97 16.97a.999.999 0 1 1-1.414-1.414L17.778.808a.999.999 0 0 1 1.414 0z"/>
    <path d="M2.222.808l16.97 16.97a.999.999 0 1 1-1.414 1.414L.808 2.222A.999.999 0 1 1 2.222.808z"/>
</svg>
