<?xml version="1.0" encoding="UTF-8"?>
<svg width="18px" height="12px" viewBox="0 0 18 12" version="1.1" xmlns="http://www.w3.org/2000/svg" xmlns:xlink="http://www.w3.org/1999/xlink">
    <!-- Generator: Sketch 44.1 (41455) - http://www.bohemiancoding.com/sketch -->
    <title>arrow_up</title>
    <desc>Created with Sketch.</desc>
    <defs></defs>
    <g id="Page-1" stroke="none" stroke-width="1" fill="none" fill-rule="evenodd">
        <g id="Haglofs_FAQ" transform="translate(-938.000000, -523.000000)" fill="#051F42">
            <g id="Content" transform="translate(45.000000, 191.000000)">
                <g id="Title" transform="translate(331.000000, 0.000000)">
                    <g id="care-instrucitons" transform="translate(0.000000, 264.000000)">
                        <polygon id="arrow_up" transform="translate(571.000000, 73.633962) scale(1, -1) rotate(90.000000) translate(-571.000000, -73.633962) " points="566.78979 64.6339622 565.366038 66.1777107 573.521566 73.69876 565.373538 81.0773141 566.782891 82.6339622 576.633962 73.7125596"></polygon>
                    </g>
                </g>
            </g>
        </g>
    </g>
</svg>