<svg xmlns="http://www.w3.org/2000/svg" width="37" height="37">
    <path d="M18.638 37.008C8.754 37.008.742 28.834.742 18.752.742 8.669 8.754.494 18.638.494c9.883 0 17.896 8.175 17.896 18.258 0 10.082-8.013 18.256-17.896 18.256zm9.582-24.254c0-2.084-1.662-3.778-3.704-3.778H12.759c-2.043 0-3.703 1.694-3.703 3.778v11.995c0 2.083 1.66 3.777 3.703 3.777h11.757c2.042 0 3.704-1.694 3.704-3.777V12.754zm-3.704 13.868H12.759c-1.013 0-1.836-.84-1.836-1.873v-8.004h2.861a5.427 5.427 0 0 0-.385 2.007c0 2.945 2.349 5.345 5.239 5.345 2.89 0 5.24-2.4 5.24-5.345a5.39 5.39 0 0 0-.388-2.007h2.862v8.004c0 1.033-.823 1.873-1.836 1.873zM22.754 11.24l2.825-.011.423-.002v3.313l-3.237.011-.011-3.311zm-4.116 10.952c-1.86 0-3.373-1.543-3.373-3.44 0-.749.238-1.443.638-2.007.614-.866 1.61-1.436 2.735-1.436a3.35 3.35 0 0 1 2.734 1.436c.401.564.639 1.258.639 2.007 0 1.897-1.513 3.44-3.373 3.44z"/>
</svg>
