<svg xmlns="http://www.w3.org/2000/svg" width="23" height="31">
    <path d="M22.889 23.859l-4.057-7.351a.89.89 0 0 0 .765-1.319l-3.684-6.676a.88.88 0 0 0 .272-.281.892.892 0 0 0 .013-.883L12.397.461A.892.892 0 0 0 11.628 0h-.012a.89.89 0 0 0-.768.44L6.809 7.329a.895.895 0 0 0-.005.894c.104.18.267.308.455.38L3.41 15.169a.89.89 0 1 0 .769 1.341h.236L.118 23.839a.89.89 0 0 0 .768 1.341h9.721v4.929a.891.891 0 0 0 1.781 0V25.18h9.721a.89.89 0 0 0 .78-1.321zM11.593 2.693l2.316 4.196H9.132l2.461-4.196zM9.016 9.129a.875.875 0 0 0 .119-.459h4.86a.937.937 0 0 0 .077.193l3.236 5.865H5.734l3.282-5.599zm-6.575 14.27L6.48 16.51h10.319l3.801 6.889H2.441z"/>
</svg>
