<svg xmlns="http://www.w3.org/2000/svg" width="37" height="37">
    <path d="M18.28.494C8.396.494.384 8.669.384 18.752c0 10.082 8.012 18.256 17.896 18.256s17.897-8.174 17.897-18.256C36.177 8.669 28.164.494 18.28.494zm8.629 14.118c.008.182.012.366.012.55 0 5.615-3.987 12.09-11.28 12.088-2.239-.001-4.32-.716-6.075-1.944.311.041.631.061.951.062 1.858.004 3.577-.681 4.934-1.83-1.735-.041-3.179-1.292-3.683-3.009.242.051.531.081.786.081.362.003.827-.048 1.16-.143-1.814-.408-2.985-2.165-2.985-4.257v-.054c.716.328.95.529 1.6.558-1.063-.785-1.943-2.115-1.943-3.613 0-.792.188-1.531.529-2.163 1.955 2.639 4.873 4.388 8.168 4.606a4.596 4.596 0 0 1-.105-.976c0-2.365 1.775-4.253 3.964-4.216 1.14.019 2.17.554 2.893 1.393a7.544 7.544 0 0 0 2.518-.991 4.148 4.148 0 0 1-1.743 2.324 7.448 7.448 0 0 0 2.277-.637 8.249 8.249 0 0 1-1.978 2.171z"/>
</svg>
